<z>0</z> <x>0</x> <y>0</y>
. . . DDDDDDDDDDDDDDDDDDDDDDDDDDDDDDDDDDDDDDDDDDDDDDDDDDDDDDDDDDDDDDDDDD
. . . DD. . . . . . . . . . . . . . . . . . . . . . . . . . . . . . . DD
. . . DD. . . . . . . . . . . . . . . . . . . . . . . . . . . . . . . DD
. . . DD. . . . . . . . . . . . . . . . . . . . . . . . . . . . . . . DD
. . . DD. . . . . . . . . . . . . . . . . . . . . . . . . . . . . . . DD
. . . DD. . . . . . . . . . . . . . . . . . . . . . . . . . . . . . . DD
. . . DD. . . . . . . . . . . . . . . . . . . . . . . . . . . . . . . DD
. . . DD. . . . . . . . . . . . . . . . . . . . . . . . . . . . . . . DD
. . . DD. . . . . . . . . . . . . . . . . . . . . . . . . . . . . . . DD
. . . DD. . . . . . . . . . . . . . . . . . . . . . . . . . . . . . . DD
. . . DD. . . . . . . . . . . . . . . . . . . . . . . . . . . . . . . DD
. . . DD. . . . . . . . . . . . . . . . . . . . . . . . . . . . . . . DD
. . . DD. . . . . . . . . . . . . . . . . . . . . . . . . . . . . . . DD
. . . DD. . . . . . . . . . . . . . . . . . . . . . . . . . . . . . . DD
. . . DD. . . . . . . . . . . . . . . . . . . . . . . . . . . . . . . DD
. . . DD. . . . . . . . . . . . . . . . . . . . . . . . . . . . . . . DD
. . . DD. . . . . . . . . . . . . . . . . . . . . . . . . . . . . . . DD
. . . DD. . . . . . . . . . . . . . . . . . . . . . . . . . . . . . . DD
. . . DD. . . . . . . . . . . . . . . . . . . . . . . . . . . . . . . DD
. . . DD. . . . . . . . . . . . . . . . . . . . . . . . . . . . . . . DD
. . . DD. . . . . . . . . . . . . . . . . . . . . . . . . . . . . . . DD
. . . DD. . . . . . . . . . . . . . . . . . . . . . . . . . . . . . . DD
. . . DD. . . . . . . . . . . . . . . . . . . . . . . . . . . . . . . DD
. . . DD. . . . . . . . . . . . . . . . . . . . . . . . . . . . . . . DD
. . . DD. . . . . . . . . . . . . . . . . . . . . . . . . . . . . . . DD
. . . DD. . . . . . . . . . . . . . DDDDDDDDDDDDDD. . . . . . . . . . DD
. . . DD. . . . . . . . . . . . . . DD/\DD~.DD. DD. . . . . . . . . . DD
. . . DD. . . . . . . . . . . . DDDDDD. DD. DD. DDSDDD. . . . . . . . DD
. . . DD. . . . . . . . . . . . DD**. . . . . . . . DD. . . . . . . . DD
. . . DD. . . . . . . . . . . . DDDDDD. . . . . DDDDDD. . . . . . . . DD
. . . DD. . . . . . . . . . . . DD@@. . . MM. . . LKDD. . . . . . . . DD
. . . DD. . . . . . . . . . . . DDDDDD. . o . . o MMDD. . . . . . . . DD
. . . DD. . . . . . . . . . . . DD~~. . . MM. . . LKDD. . . . . . . . DD
. . . DD. . . . . . . . . . . . DDDDDD. . . . . DDDDDD. . . . . . . . DD
. . . DD. . . . . . . . . . . . DD~.. . . . . . . . DD. . . . . . . . DD
. . . DD. . . . . . . . . . . . DDDDDD. DD. DD. DDDDDD. . . . . . . . DD
. . . DD. . . . . . . . . . . . . . DD{}DD.\DD??DD. . . . . . . . . . DD
. . . DD. . . . . . . . . . . . . . DDDDDDDDDDDDDD. . . . . . . . . . DD
. . . DD. . . . . . . . . . . . . . . . . . . . . . . . . . . . . . . DD
. . . DDDDDDDDDDDDDDDDDDDDDDDDDDDDDDDDDDDDDDDDDDDDDDDDDDDDDDDDDDDDDDDDDD














